{
  "pageIndex": 1,
  "pageSize": 25,
  "totalCount": 99,
  "totalPages": 4,
  "hasPreviousPage": false,
  "hasNextPage": true,
  "items": [
    {
      "brandId": 244,
      "combinationId": 151446,
      "systemSKU": "BABY01-BRIGHTRED-MISC",
      "style": "BABY01",
      "size": "OS",
      "color": "BRIGHT RED",
      "actualInventory": 100,
      "bufferInventory": 0,
      "inventory": 100,
      "navInventory": 0,
      "totalInventory": 100,
      "updateOn": "01/07/2025 12:09:22",
      "log": "Inventory returned successfully",
      "productAttributeOptionId": 0,
      "productAttributeId": 0,
      "productId": 8610,
      "createdName": "Tejas Daftary",
      "modifiedName": "",
      "modifiedDate": "2025-01-07T12:09:22.3833333",
      "createdDate": "2025-01-06T08:09:52.7842139",
      "recStatus": "A",
      "brand": "Bogg Bag",
      "vendor": "Bogg Bag"
    },
    {
      "brandId": 244,
      "combinationId": 151448,
      "systemSKU": "BABY01-CORAL-MISC",
      "style": "BABY01",
      "size": "OS",
      "color": "CORAL",
      "actualInventory": 100,
      "bufferInventory": 0,
      "inventory": 100,
      "navInventory": 0,
      "totalInventory": 100,
      "updateOn": "01/07/2025 12:09:22",
      "log": "Inventory returned successfully",
      "productAttributeOptionId": 0,
      "productAttributeId": 0,
      "productId": 8610,
      "createdName": "Tejas Daftary",
      "modifiedName": "",
      "modifiedDate": "2025-01-07T12:09:22.3833333",
      "createdDate": "2025-01-06T08:09:54.1993294",
      "recStatus": "A",
      "brand": "Bogg Bag",
      "vendor": "Bogg Bag"
    },
    {
      "brandId": 244,
      "combinationId": 151450,
      "systemSKU": "BABY01-ORANGE-MISC",
      "style": "BABY01",
      "size": "OS",
      "color": "ORANGE",
      "actualInventory": 100,
      "bufferInventory": 0,
      "inventory": 100,
      "navInventory": 0,
      "totalInventory": 100,
      "updateOn": "01/07/2025 12:09:22",
      "log": "Inventory returned successfully",
      "productAttributeOptionId": 0,
      "productAttributeId": 0,
      "productId": 8610,
      "createdName": "Tejas Daftary",
      "modifiedName": "",
      "modifiedDate": "2025-01-07T12:09:22.3833333",
      "createdDate": "2025-01-06T08:09:55.4227042",
      "recStatus": "A",
      "brand": "Bogg Bag",
      "vendor": "Bogg Bag"
    },
    {
      "brandId": 244,
      "combinationId": 151452,
      "systemSKU": "BABY01-YELLOW-MISC",
      "style": "BABY01",
      "size": "OS",
      "color": "YELLOW",
      "actualInventory": 100,
      "bufferInventory": 0,
      "inventory": 100,
      "navInventory": 0,
      "totalInventory": 100,
      "updateOn": "01/07/2025 12:09:22",
      "log": "Inventory returned successfully",
      "productAttributeOptionId": 0,
      "productAttributeId": 0,
      "productId": 8610,
      "createdName": "Tejas Daftary",
      "modifiedName": "",
      "modifiedDate": "2025-01-07T12:09:22.3833333",
      "createdDate": "2025-01-06T08:09:56.749782",
      "recStatus": "A",
      "brand": "Bogg Bag",
      "vendor": "Bogg Bag"
    },
    {
      "brandId": 244,
      "combinationId": 151454,
      "systemSKU": "BABY01-BANANA-MISC",
      "style": "BABY01",
      "size": "OS",
      "color": "BANANA",
      "actualInventory": 100,
      "bufferInventory": 0,
      "inventory": 100,
      "navInventory": 0,
      "totalInventory": 100,
      "updateOn": "01/07/2025 12:09:22",
      "log": "Inventory returned successfully",
      "productAttributeOptionId": 0,
      "productAttributeId": 0,
      "productId": 8610,
      "createdName": "Tejas Daftary",
      "modifiedName": "",
      "modifiedDate": "2025-01-07T12:09:22.3833333",
      "createdDate": "2025-01-06T08:09:58.1625754",
      "recStatus": "A",
      "brand": "Bogg Bag",
      "vendor": "Bogg Bag"
    },
    {
      "brandId": 244,
      "combinationId": 151456,
      "systemSKU": "BABY01-GREEN-MISC",
      "style": "BABY01",
      "size": "OS",
      "color": "GREEN",
      "actualInventory": 100,
      "bufferInventory": 0,
      "inventory": 100,
      "navInventory": 0,
      "totalInventory": 100,
      "updateOn": "01/07/2025 12:09:22",
      "log": "Inventory returned successfully",
      "productAttributeOptionId": 0,
      "productAttributeId": 0,
      "productId": 8610,
      "createdName": "Tejas Daftary",
      "modifiedName": "",
      "modifiedDate": "2025-01-07T12:09:22.3833333",
      "createdDate": "2025-01-06T08:09:59.6962799",
      "recStatus": "A",
      "brand": "Bogg Bag",
      "vendor": "Bogg Bag"
    },
    {
      "brandId": 244,
      "combinationId": 151458,
      "systemSKU": "BABY01-SEAFOAM-MISC",
      "style": "BABY01",
      "size": "OS",
      "color": "SEAFOAM",
      "actualInventory": 100,
      "bufferInventory": 0,
      "inventory": 100,
      "navInventory": 0,
      "totalInventory": 100,
      "updateOn": "01/07/2025 12:09:22",
      "log": "Inventory returned successfully",
      "productAttributeOptionId": 0,
      "productAttributeId": 0,
      "productId": 8610,
      "createdName": "Tejas Daftary",
      "modifiedName": "",
      "modifiedDate": "2025-01-07T12:09:22.3833333",
      "createdDate": "2025-01-06T08:10:01.4519834",
      "recStatus": "A",
      "brand": "Bogg Bag",
      "vendor": "Bogg Bag"
    },
    {
      "brandId": 244,
      "combinationId": 151461,
      "systemSKU": "BABY01-CABANABOY-MISC",
      "style": "BABY01",
      "size": "OS",
      "color": "CABANA BOY",
      "actualInventory": 100,
      "bufferInventory": 0,
      "inventory": 100,
      "navInventory": 0,
      "totalInventory": 100,
      "updateOn": "01/07/2025 12:09:22",
      "log": "Inventory returned successfully",
      "productAttributeOptionId": 0,
      "productAttributeId": 0,
      "productId": 8610,
      "createdName": "Tejas Daftary",
      "modifiedName": "",
      "modifiedDate": "2025-01-07T12:09:22.3833333",
      "createdDate": "2025-01-06T08:10:03.3363296",
      "recStatus": "A",
      "brand": "Bogg Bag",
      "vendor": "Bogg Bag"
    },
    {
      "brandId": 244,
      "combinationId": 151463,
      "systemSKU": "BABY01-CAROLINA-MISC",
      "style": "BABY01",
      "size": "OS",
      "color": "CAROLINA",
      "actualInventory": 100,
      "bufferInventory": 0,
      "inventory": 100,
      "navInventory": 0,
      "totalInventory": 100,
      "updateOn": "01/07/2025 12:09:22",
      "log": "Inventory returned successfully",
      "productAttributeOptionId": 0,
      "productAttributeId": 0,
      "productId": 8610,
      "createdName": "Tejas Daftary",
      "modifiedName": "",
      "modifiedDate": "2025-01-07T12:09:22.3833333",
      "createdDate": "2025-01-06T08:10:05.2642194",
      "recStatus": "A",
      "brand": "Bogg Bag",
      "vendor": "Bogg Bag"
    },
    {
      "brandId": 244,
      "combinationId": 151465,
      "systemSKU": "BABY01-TURQUOISE-MISC",
      "style": "BABY01",
      "size": "OS",
      "color": "TURQUOISE",
      "actualInventory": 100,
      "bufferInventory": 0,
      "inventory": 100,
      "navInventory": 0,
      "totalInventory": 100,
      "updateOn": "01/07/2025 12:09:22",
      "log": "Inventory returned successfully",
      "productAttributeOptionId": 0,
      "productAttributeId": 0,
      "productId": 8610,
      "createdName": "Tejas Daftary",
      "modifiedName": "",
      "modifiedDate": "2025-01-07T12:09:22.3833333",
      "createdDate": "2025-01-06T08:10:07.3844479",
      "recStatus": "A",
      "brand": "Bogg Bag",
      "vendor": "Bogg Bag"
    },
    {
      "brandId": 244,
      "combinationId": 151467,
      "systemSKU": "BABY01-TIFFANY-MISC",
      "style": "BABY01",
      "size": "OS",
      "color": "TIFFANY",
      "actualInventory": 100,
      "bufferInventory": 0,
      "inventory": 100,
      "navInventory": 0,
      "totalInventory": 100,
      "updateOn": "01/07/2025 12:09:22",
      "log": "Inventory returned successfully",
      "productAttributeOptionId": 0,
      "productAttributeId": 0,
      "productId": 8610,
      "createdName": "Tejas Daftary",
      "modifiedName": "",
      "modifiedDate": "2025-01-07T12:09:22.3833333",
      "createdDate": "2025-01-06T08:10:09.5155319",
      "recStatus": "A",
      "brand": "Bogg Bag",
      "vendor": "Bogg Bag"
    },
    {
      "brandId": 244,
      "combinationId": 151469,
      "systemSKU": "BABY01-ROYAL-MISC",
      "style": "BABY01",
      "size": "OS",
      "color": "ROYAL",
      "actualInventory": 100,
      "bufferInventory": 0,
      "inventory": 100,
      "navInventory": 0,
      "totalInventory": 100,
      "updateOn": "01/07/2025 12:09:22",
      "log": "Inventory returned successfully",
      "productAttributeOptionId": 0,
      "productAttributeId": 0,
      "productId": 8610,
      "createdName": "Tejas Daftary",
      "modifiedName": "",
      "modifiedDate": "2025-01-07T12:09:22.3833333",
      "createdDate": "2025-01-06T08:10:11.656457",
      "recStatus": "A",
      "brand": "Bogg Bag",
      "vendor": "Bogg Bag"
    },
    {
      "brandId": 244,
      "combinationId": 151471,
      "systemSKU": "BABY01-PEACOCK-MISC",
      "style": "BABY01",
      "size": "OS",
      "color": "PEACOCK",
      "actualInventory": 100,
      "bufferInventory": 0,
      "inventory": 100,
      "navInventory": 0,
      "totalInventory": 100,
      "updateOn": "01/07/2025 12:09:22",
      "log": "Inventory returned successfully",
      "productAttributeOptionId": 0,
      "productAttributeId": 0,
      "productId": 8610,
      "createdName": "Tejas Daftary",
      "modifiedName": "",
      "modifiedDate": "2025-01-07T12:09:22.3833333",
      "createdDate": "2025-01-06T08:10:14.3701439",
      "recStatus": "A",
      "brand": "Bogg Bag",
      "vendor": "Bogg Bag"
    },
    {
      "brandId": 244,
      "combinationId": 151473,
      "systemSKU": "BABY01-AZURE-MISC",
      "style": "BABY01",
      "size": "OS",
      "color": "AZURE",
      "actualInventory": 100,
      "bufferInventory": 0,
      "inventory": 100,
      "navInventory": 0,
      "totalInventory": 100,
      "updateOn": "01/07/2025 12:09:22",
      "log": "Inventory returned successfully",
      "productAttributeOptionId": 0,
      "productAttributeId": 0,
      "productId": 8610,
      "createdName": "Tejas Daftary",
      "modifiedName": "",
      "modifiedDate": "2025-01-07T12:09:22.3833333",
      "createdDate": "2025-01-06T08:10:16.7022378",
      "recStatus": "A",
      "brand": "Bogg Bag",
      "vendor": "Bogg Bag"
    },
    {
      "brandId": 244,
      "combinationId": 151475,
      "systemSKU": "BABY01-PERIWINKLE-MISC",
      "style": "BABY01",
      "size": "OS",
      "color": "PERIWINKLE",
      "actualInventory": 100,
      "bufferInventory": 0,
      "inventory": 100,
      "navInventory": 0,
      "totalInventory": 100,
      "updateOn": "01/07/2025 12:09:22",
      "log": "Inventory returned successfully",
      "productAttributeOptionId": 0,
      "productAttributeId": 0,
      "productId": 8610,
      "createdName": "Tejas Daftary",
      "modifiedName": "",
      "modifiedDate": "2025-01-07T12:09:22.3833333",
      "createdDate": "2025-01-06T08:10:19.1670202",
      "recStatus": "A",
      "brand": "Bogg Bag",
      "vendor": "Bogg Bag"
    },
    {
      "brandId": 244,
      "combinationId": 151477,
      "systemSKU": "BABY01-RASPBERRY-MISC",
      "style": "BABY01",
      "size": "OS",
      "color": "RASPBERRY",
      "actualInventory": 100,
      "bufferInventory": 0,
      "inventory": 100,
      "navInventory": 0,
      "totalInventory": 100,
      "updateOn": "01/07/2025 12:09:22",
      "log": "Inventory returned successfully",
      "productAttributeOptionId": 0,
      "productAttributeId": 0,
      "productId": 8610,
      "createdName": "Tejas Daftary",
      "modifiedName": "",
      "modifiedDate": "2025-01-07T12:09:22.3833333",
      "createdDate": "2025-01-06T08:10:21.7130641",
      "recStatus": "A",
      "brand": "Bogg Bag",
      "vendor": "Bogg Bag"
    },
    {
      "brandId": 244,
      "combinationId": 151479,
      "systemSKU": "BABY01-LAVENDER-MISC",
      "style": "BABY01",
      "size": "OS",
      "color": "LAVENDER",
      "actualInventory": 100,
      "bufferInventory": 0,
      "inventory": 100,
      "navInventory": 0,
      "totalInventory": 100,
      "updateOn": "01/07/2025 12:09:22",
      "log": "Inventory returned successfully",
      "productAttributeOptionId": 0,
      "productAttributeId": 0,
      "productId": 8610,
      "createdName": "Tejas Daftary",
      "modifiedName": "",
      "modifiedDate": "2025-01-07T12:09:22.3833333",
      "createdDate": "2025-01-06T08:10:24.322058",
      "recStatus": "A",
      "brand": "Bogg Bag",
      "vendor": "Bogg Bag"
    },
    {
      "brandId": 244,
      "combinationId": 151481,
      "systemSKU": "BABY01-LILAC-MISC",
      "style": "BABY01",
      "size": "OS",
      "color": "LILAC",
      "actualInventory": 100,
      "bufferInventory": 0,
      "inventory": 100,
      "navInventory": 0,
      "totalInventory": 100,
      "updateOn": "01/07/2025 12:09:22",
      "log": "Inventory returned successfully",
      "productAttributeOptionId": 0,
      "productAttributeId": 0,
      "productId": 8610,
      "createdName": "Tejas Daftary",
      "modifiedName": "",
      "modifiedDate": "2025-01-07T12:09:22.3833333",
      "createdDate": "2025-01-06T08:10:27.1432665",
      "recStatus": "A",
      "brand": "Bogg Bag",
      "vendor": "Bogg Bag"
    },
    {
      "brandId": 244,
      "combinationId": 151483,
      "systemSKU": "BABY01-PURPLE-MISC",
      "style": "BABY01",
      "size": "OS",
      "color": "PURPLE",
      "actualInventory": 100,
      "bufferInventory": 0,
      "inventory": 100,
      "navInventory": 0,
      "totalInventory": 100,
      "updateOn": "01/07/2025 12:09:22",
      "log": "Inventory returned successfully",
      "productAttributeOptionId": 0,
      "productAttributeId": 0,
      "productId": 8610,
      "createdName": "Tejas Daftary",
      "modifiedName": "",
      "modifiedDate": "2025-01-07T12:09:22.3833333",
      "createdDate": "2025-01-06T08:10:29.8413411",
      "recStatus": "A",
      "brand": "Bogg Bag",
      "vendor": "Bogg Bag"
    },
    {
      "brandId": 244,
      "combinationId": 151485,
      "systemSKU": "BABY01-BBERRY-MISC",
      "style": "BABY01",
      "size": "OS",
      "color": "B-BERRY",
      "actualInventory": 100,
      "bufferInventory": 0,
      "inventory": 100,
      "navInventory": 0,
      "totalInventory": 100,
      "updateOn": "01/07/2025 12:09:22",
      "log": "Inventory returned successfully",
      "productAttributeOptionId": 0,
      "productAttributeId": 0,
      "productId": 8610,
      "createdName": "Tejas Daftary",
      "modifiedName": "",
      "modifiedDate": "2025-01-07T12:09:22.3833333",
      "createdDate": "2025-01-06T08:10:32.8559969",
      "recStatus": "A",
      "brand": "Bogg Bag",
      "vendor": "Bogg Bag"
    },
    {
      "brandId": 244,
      "combinationId": 151487,
      "systemSKU": "BABY01-PINK-MISC",
      "style": "BABY01",
      "size": "OS",
      "color": "PINK",
      "actualInventory": 100,
      "bufferInventory": 0,
      "inventory": 100,
      "navInventory": 0,
      "totalInventory": 100,
      "updateOn": "01/07/2025 12:09:22",
      "log": "Inventory returned successfully",
      "productAttributeOptionId": 0,
      "productAttributeId": 0,
      "productId": 8610,
      "createdName": "Tejas Daftary",
      "modifiedName": "",
      "modifiedDate": "2025-01-07T12:09:22.3833333",
      "createdDate": "2025-01-06T08:10:36.2969206",
      "recStatus": "A",
      "brand": "Bogg Bag",
      "vendor": "Bogg Bag"
    },
    {
      "brandId": 244,
      "combinationId": 151489,
      "systemSKU": "BABY01-WATERMELON-MISC",
      "style": "BABY01",
      "size": "OS",
      "color": "WATERMELON",
      "actualInventory": 100,
      "bufferInventory": 0,
      "inventory": 100,
      "navInventory": 0,
      "totalInventory": 100,
      "updateOn": "01/07/2025 12:09:22",
      "log": "Inventory returned successfully",
      "productAttributeOptionId": 0,
      "productAttributeId": 0,
      "productId": 8610,
      "createdName": "Tejas Daftary",
      "modifiedName": "",
      "modifiedDate": "2025-01-07T12:09:22.3833333",
      "createdDate": "2025-01-06T08:10:39.772713",
      "recStatus": "A",
      "brand": "Bogg Bag",
      "vendor": "Bogg Bag"
    },
    {
      "brandId": 244,
      "combinationId": 151493,
      "systemSKU": "BABY01-PEACH-MISC",
      "style": "BABY01",
      "size": "OS",
      "color": "PEACH",
      "actualInventory": 100,
      "bufferInventory": 0,
      "inventory": 100,
      "navInventory": 0,
      "totalInventory": 100,
      "updateOn": "01/07/2025 12:09:22",
      "log": "Inventory returned successfully",
      "productAttributeOptionId": 0,
      "productAttributeId": 0,
      "productId": 8610,
      "createdName": "Tejas Daftary",
      "modifiedName": "",
      "modifiedDate": "2025-01-07T12:09:22.3833333",
      "createdDate": "2025-01-06T08:10:46.9309994",
      "recStatus": "A",
      "brand": "Bogg Bag",
      "vendor": "Bogg Bag"
    },
    {
      "brandId": 244,
      "combinationId": 151495,
      "systemSKU": "BABY01-PETALPINK-MISC",
      "style": "BABY01",
      "size": "OS",
      "color": "PETAL PINK",
      "actualInventory": 100,
      "bufferInventory": 0,
      "inventory": 100,
      "navInventory": 0,
      "totalInventory": 100,
      "updateOn": "01/07/2025 12:09:22",
      "log": "Inventory returned successfully",
      "productAttributeOptionId": 0,
      "productAttributeId": 0,
      "productId": 8610,
      "createdName": "Tejas Daftary",
      "modifiedName": "",
      "modifiedDate": "2025-01-07T12:09:22.3833333",
      "createdDate": "2025-01-06T08:10:50.5206489",
      "recStatus": "A",
      "brand": "Bogg Bag",
      "vendor": "Bogg Bag"
    },
    {
      "brandId": 244,
      "combinationId": 151497,
      "systemSKU": "BABY01-BLUSH-MISC",
      "style": "BABY01",
      "size": "OS",
      "color": "BLUSH",
      "actualInventory": 100,
      "bufferInventory": 0,
      "inventory": 100,
      "navInventory": 0,
      "totalInventory": 100,
      "updateOn": "01/07/2025 12:09:22",
      "log": "Inventory returned successfully",
      "productAttributeOptionId": 0,
      "productAttributeId": 0,
      "productId": 8610,
      "createdName": "Tejas Daftary",
      "modifiedName": "",
      "modifiedDate": "2025-01-07T12:09:22.3833333",
      "createdDate": "2025-01-06T08:10:54.3194869",
      "recStatus": "A",
      "brand": "Bogg Bag",
      "vendor": "Bogg Bag"
    }
  ]
}
