{
  "pageIndex": 1,
  "pageSize": 25,
  "totalCount": 1695,
  "totalPages": 68,
  "hasPreviousPage": false,
  "hasNextPage": true,
  "items": [
    {
      "createdName": "Vipul Solanki",
      "modifiedName": "Vipul Solanki",
      "storeName": "Corporate Gear",
      "id": 11,
      "orderTotalMin": 1,
      "orderTotalMax": 200,
      "charge": 16,
      "storeId": 5,
      "isPercentage": null,
      "recStatus": "A",
      "createdDate": "2023-05-29T03:33:11.3711102",
      "createdBy": 3,
      "modifiedDate": "2023-05-29T03:33:32.5201609",
      "modifiedBy": 3,
      "rowVersion": "tW04evVf2wg=",
      "location": "Vadodara Gujarat India 390007",
      "ipAddress": "120.72.90.155",
      "macAddress": "00-00-00-00-00-00"
    },
    {
      "createdName": "Vipul Solanki",
      "modifiedName": "Anand Kumar",
      "storeName": "Corporate Gear",
      "id": 12,
      "orderTotalMin": 201,
      "orderTotalMax": 499,
      "charge": 24,
      "storeId": 5,
      "isPercentage": null,
      "recStatus": "I",
      "createdDate": "2023-05-29T03:33:58.5614963",
      "createdBy": 3,
      "modifiedDate": "2024-03-08T02:02:06.0139339",
      "modifiedBy": 159,
      "rowVersion": "rgRTwRM/3Ag=",
      "location": "RI",
      "ipAddress": "27.54.168.197",
      "macAddress": "00-00-00-00-00-00"
    },
    {
      "createdName": "Vipul Solanki",
      "modifiedName": " ",
      "storeName": "Corporate Gear",
      "id": 13,
      "orderTotalMin": 500,
      "orderTotalMax": 999,
      "charge": 32,
      "storeId": 5,
      "isPercentage": null,
      "recStatus": "A",
      "createdDate": "2023-05-29T03:34:22.5964918",
      "createdBy": 3,
      "modifiedDate": null,
      "modifiedBy": null,
      "rowVersion": "WHgRmPVf2wg=",
      "location": "Vadodara Gujarat India 390007",
      "ipAddress": "120.72.90.155",
      "macAddress": "00-00-00-00-00-00"
    },
    {
      "createdName": "Vipul Solanki",
      "modifiedName": " ",
      "storeName": "Corporate Gear",
      "id": 14,
      "orderTotalMin": 1000,
      "orderTotalMax": 1499,
      "charge": 60,
      "storeId": 5,
      "isPercentage": null,
      "recStatus": "A",
      "createdDate": "2023-05-29T03:34:43.124914",
      "createdBy": 3,
      "modifiedDate": null,
      "modifiedBy": null,
      "rowVersion": "09tNpPVf2wg=",
      "location": "Vadodara Gujarat India 390007",
      "ipAddress": "120.72.90.155",
      "macAddress": "00-00-00-00-00-00"
    },
    {
      "createdName": "Vipul Solanki",
      "modifiedName": " ",
      "storeName": "Corporate Gear",
      "id": 15,
      "orderTotalMin": 1500,
      "orderTotalMax": 1999,
      "charge": 80,
      "storeId": 5,
      "isPercentage": null,
      "recStatus": "A",
      "createdDate": "2023-05-29T03:38:19.0190057",
      "createdBy": 3,
      "modifiedDate": null,
      "modifiedBy": null,
      "rowVersion": "3678JPZf2wg=",
      "location": "Vadodara Gujarat India 390007",
      "ipAddress": "120.72.90.155",
      "macAddress": "00-00-00-00-00-00"
    },
    {
      "createdName": "Vipul Solanki",
      "modifiedName": " ",
      "storeName": "Corporate Gear",
      "id": 16,
      "orderTotalMin": 2000,
      "orderTotalMax": 2499,
      "charge": 100,
      "storeId": 5,
      "isPercentage": null,
      "recStatus": "A",
      "createdDate": "2023-05-29T03:38:53.7851924",
      "createdBy": 3,
      "modifiedDate": null,
      "modifiedBy": null,
      "rowVersion": "/ZS1OfZf2wg=",
      "location": "Vadodara Gujarat India 390007",
      "ipAddress": "120.72.90.155",
      "macAddress": "00-00-00-00-00-00"
    },
    {
      "createdName": "Vipul Solanki",
      "modifiedName": " ",
      "storeName": "Corporate Gear",
      "id": 17,
      "orderTotalMin": 2500,
      "orderTotalMax": 2999,
      "charge": 120,
      "storeId": 5,
      "isPercentage": null,
      "recStatus": "A",
      "createdDate": "2023-05-29T03:39:17.8882166",
      "createdBy": 3,
      "modifiedDate": null,
      "modifiedBy": null,
      "rowVersion": "X2kTSPZf2wg=",
      "location": "Vadodara Gujarat India 390007",
      "ipAddress": "120.72.90.155",
      "macAddress": "00-00-00-00-00-00"
    },
    {
      "createdName": "Vipul Solanki",
      "modifiedName": " ",
      "storeName": "Corporate Gear",
      "id": 18,
      "orderTotalMin": 3000,
      "orderTotalMax": 3499,
      "charge": 140,
      "storeId": 5,
      "isPercentage": null,
      "recStatus": "A",
      "createdDate": "2023-05-29T03:39:38.3198081",
      "createdBy": 3,
      "modifiedDate": null,
      "modifiedBy": null,
      "rowVersion": "YQZBVPZf2wg=",
      "location": "Vadodara Gujarat India 390007",
      "ipAddress": "120.72.90.155",
      "macAddress": "00-00-00-00-00-00"
    },
    {
      "createdName": "Vipul Solanki",
      "modifiedName": " ",
      "storeName": "Corporate Gear",
      "id": 19,
      "orderTotalMin": 3500,
      "orderTotalMax": 3999,
      "charge": 160,
      "storeId": 5,
      "isPercentage": null,
      "recStatus": "A",
      "createdDate": "2023-05-29T03:40:15.0213579",
      "createdBy": 3,
      "modifiedDate": null,
      "modifiedBy": null,
      "rowVersion": "9jwhavZf2wg=",
      "location": "Vadodara Gujarat India 390007",
      "ipAddress": "120.72.90.155",
      "macAddress": "00-00-00-00-00-00"
    },
    {
      "createdName": "Vipul Solanki",
      "modifiedName": " ",
      "storeName": "Corporate Gear",
      "id": 20,
      "orderTotalMin": 4000,
      "orderTotalMax": 1000000,
      "charge": 0,
      "storeId": 5,
      "isPercentage": null,
      "recStatus": "A",
      "createdDate": "2023-05-29T03:40:46.1546852",
      "createdBy": 3,
      "modifiedDate": null,
      "modifiedBy": null,
      "rowVersion": "S86vfPZf2wg=",
      "location": "Vadodara Gujarat India 390007",
      "ipAddress": "120.72.90.155",
      "macAddress": "00-00-00-00-00-00"
    },
    {
      "createdName": " ",
      "modifiedName": " ",
      "storeName": "Driving Impressions",
      "id": 21,
      "orderTotalMin": 1,
      "orderTotalMax": 250,
      "charge": 15,
      "storeId": 8,
      "isPercentage": null,
      "recStatus": "A",
      "createdDate": null,
      "createdBy": null,
      "modifiedDate": null,
      "modifiedBy": null,
      "rowVersion": null,
      "location": null,
      "ipAddress": null,
      "macAddress": null
    },
    {
      "createdName": " ",
      "modifiedName": " ",
      "storeName": "Driving Impressions",
      "id": 22,
      "orderTotalMin": 251,
      "orderTotalMax": 500,
      "charge": 6,
      "storeId": 8,
      "isPercentage": null,
      "recStatus": "A",
      "createdDate": null,
      "createdBy": null,
      "modifiedDate": null,
      "modifiedBy": null,
      "rowVersion": null,
      "location": null,
      "ipAddress": null,
      "macAddress": null
    },
    {
      "createdName": " ",
      "modifiedName": " ",
      "storeName": "Driving Impressions",
      "id": 23,
      "orderTotalMin": 501,
      "orderTotalMax": 1000,
      "charge": 4,
      "storeId": 8,
      "isPercentage": null,
      "recStatus": "A",
      "createdDate": null,
      "createdBy": null,
      "modifiedDate": null,
      "modifiedBy": null,
      "rowVersion": null,
      "location": null,
      "ipAddress": null,
      "macAddress": null
    },
    {
      "createdName": " ",
      "modifiedName": " ",
      "storeName": "Driving Impressions",
      "id": 24,
      "orderTotalMin": 1001,
      "orderTotalMax": 5000,
      "charge": 3,
      "storeId": 8,
      "isPercentage": null,
      "recStatus": "A",
      "createdDate": null,
      "createdBy": null,
      "modifiedDate": null,
      "modifiedBy": null,
      "rowVersion": null,
      "location": null,
      "ipAddress": null,
      "macAddress": null
    },
    {
      "createdName": " ",
      "modifiedName": " ",
      "storeName": "Driving Impressions",
      "id": 25,
      "orderTotalMin": 5001,
      "orderTotalMax": 1000000,
      "charge": 2,
      "storeId": 8,
      "isPercentage": null,
      "recStatus": "A",
      "createdDate": null,
      "createdBy": null,
      "modifiedDate": null,
      "modifiedBy": null,
      "rowVersion": null,
      "location": null,
      "ipAddress": null,
      "macAddress": null
    },
    {
      "createdName": "Vipul Solanki",
      "modifiedName": " ",
      "storeName": "PKHealth Gear",
      "id": 26,
      "orderTotalMin": 0,
      "orderTotalMax": 999,
      "charge": 60,
      "storeId": 7,
      "isPercentage": null,
      "recStatus": "A",
      "createdDate": "2023-06-08T09:17:44.7656059",
      "createdBy": 3,
      "modifiedDate": null,
      "modifiedBy": null,
      "rowVersion": "8oYMOAFo2wg=",
      "location": "RI",
      "ipAddress": "127.0.0.0",
      "macAddress": "00-00-00-00-00-00"
    },
    {
      "createdName": "Vipul Solanki",
      "modifiedName": " ",
      "storeName": "PKHealth Gear",
      "id": 27,
      "orderTotalMin": 1000,
      "orderTotalMax": 1499,
      "charge": 80,
      "storeId": 7,
      "isPercentage": null,
      "recStatus": "A",
      "createdDate": "2023-06-08T09:18:05.0339359",
      "createdBy": 3,
      "modifiedDate": null,
      "modifiedBy": null,
      "rowVersion": "CDMhRAFo2wg=",
      "location": "RI",
      "ipAddress": "127.0.0.0",
      "macAddress": "00-00-00-00-00-00"
    },
    {
      "createdName": "Vipul Solanki",
      "modifiedName": " ",
      "storeName": "PKHealth Gear",
      "id": 28,
      "orderTotalMin": 1500,
      "orderTotalMax": 1999,
      "charge": 100,
      "storeId": 7,
      "isPercentage": null,
      "recStatus": "A",
      "createdDate": "2023-06-08T09:18:56.9886777",
      "createdBy": 3,
      "modifiedDate": null,
      "modifiedBy": null,
      "rowVersion": "vt0YYwFo2wg=",
      "location": "RI",
      "ipAddress": "127.0.0.0",
      "macAddress": "00-00-00-00-00-00"
    },
    {
      "createdName": "Vipul Solanki",
      "modifiedName": " ",
      "storeName": "PKHealth Gear",
      "id": 29,
      "orderTotalMin": 2000,
      "orderTotalMax": 2499,
      "charge": 120,
      "storeId": 7,
      "isPercentage": null,
      "recStatus": "A",
      "createdDate": "2023-06-08T09:19:18.0362615",
      "createdBy": 3,
      "modifiedDate": null,
      "modifiedBy": null,
      "rowVersion": "+nikbwFo2wg=",
      "location": "RI",
      "ipAddress": "127.0.0.0",
      "macAddress": "00-00-00-00-00-00"
    },
    {
      "createdName": "Vipul Solanki",
      "modifiedName": " ",
      "storeName": "PKHealth Gear",
      "id": 30,
      "orderTotalMin": 2500,
      "orderTotalMax": 1000000,
      "charge": 0,
      "storeId": 7,
      "isPercentage": null,
      "recStatus": "A",
      "createdDate": "2023-06-08T09:19:34.0335354",
      "createdBy": 3,
      "modifiedDate": null,
      "modifiedBy": null,
      "rowVersion": "QnYteQFo2wg=",
      "location": "RI",
      "ipAddress": "127.0.0.0",
      "macAddress": "00-00-00-00-00-00"
    },
    {
      "createdName": "Vipul Solanki",
      "modifiedName": "Vipul Solanki",
      "storeName": "Porsche",
      "id": 31,
      "orderTotalMin": 1,
      "orderTotalMax": 200,
      "charge": 16,
      "storeId": 45,
      "isPercentage": null,
      "recStatus": "A",
      "createdDate": "2023-05-29T03:33:11.3711102",
      "createdBy": 3,
      "modifiedDate": "2023-05-29T03:33:32.5201609",
      "modifiedBy": 3,
      "rowVersion": "tW04evVf2wg=",
      "location": "Vadodara Gujarat India 390007",
      "ipAddress": "120.72.90.155",
      "macAddress": "00-00-00-00-00-00"
    },
    {
      "createdName": "Vipul Solanki",
      "modifiedName": " ",
      "storeName": "Porsche",
      "id": 32,
      "orderTotalMin": 201,
      "orderTotalMax": 499,
      "charge": 24,
      "storeId": 45,
      "isPercentage": null,
      "recStatus": "A",
      "createdDate": "2023-05-29T03:33:58.5614963",
      "createdBy": 3,
      "modifiedDate": null,
      "modifiedBy": null,
      "rowVersion": "VwW+ifVf2wg=",
      "location": "Vadodara Gujarat India 390007",
      "ipAddress": "120.72.90.155",
      "macAddress": "00-00-00-00-00-00"
    },
    {
      "createdName": "Vipul Solanki",
      "modifiedName": " ",
      "storeName": "Porsche",
      "id": 33,
      "orderTotalMin": 500,
      "orderTotalMax": 999,
      "charge": 32,
      "storeId": 45,
      "isPercentage": null,
      "recStatus": "A",
      "createdDate": "2023-05-29T03:34:22.5964918",
      "createdBy": 3,
      "modifiedDate": null,
      "modifiedBy": null,
      "rowVersion": "WHgRmPVf2wg=",
      "location": "Vadodara Gujarat India 390007",
      "ipAddress": "120.72.90.155",
      "macAddress": "00-00-00-00-00-00"
    },
    {
      "createdName": "Vipul Solanki",
      "modifiedName": " ",
      "storeName": "Porsche",
      "id": 34,
      "orderTotalMin": 1000,
      "orderTotalMax": 1499,
      "charge": 60,
      "storeId": 45,
      "isPercentage": null,
      "recStatus": "A",
      "createdDate": "2023-05-29T03:34:43.124914",
      "createdBy": 3,
      "modifiedDate": null,
      "modifiedBy": null,
      "rowVersion": "09tNpPVf2wg=",
      "location": "Vadodara Gujarat India 390007",
      "ipAddress": "120.72.90.155",
      "macAddress": "00-00-00-00-00-00"
    },
    {
      "createdName": "Vipul Solanki",
      "modifiedName": " ",
      "storeName": "Porsche",
      "id": 35,
      "orderTotalMin": 1500,
      "orderTotalMax": 1999,
      "charge": 80,
      "storeId": 45,
      "isPercentage": null,
      "recStatus": "A",
      "createdDate": "2023-05-29T03:38:19.0190057",
      "createdBy": 3,
      "modifiedDate": null,
      "modifiedBy": null,
      "rowVersion": "3678JPZf2wg=",
      "location": "Vadodara Gujarat India 390007",
      "ipAddress": "120.72.90.155",
      "macAddress": "00-00-00-00-00-00"
    }
  ]
}
